%YAML 1.1
%TAG !u! tag:unity3d.com,2011:
--- !u!114 &11400000
MonoBehaviour:
  m_ObjectHideFlags: 0
  m_PrefabParentObject: {fileID: 0}
  m_PrefabInternal: {fileID: 0}
  m_GameObject: {fileID: 0}
  m_Enabled: 1
  m_EditorHideFlags: 0
  m_Script: {fileID: 11500000, guid: 75f8438fe1cbe904aa2afd096dc4da1c, type: 3}
  m_Name: MO_LargeTree
  m_EditorClassIdentifier: 
  id: LargeTree
  prefab: {fileID: 11478864, guid: d93ff08be53104a46bd642c06d950f9f, type: 2}
  size:
    x: 2
    y: 2
