%YAML 1.1
%TAG !u! tag:unity3d.com,2011:
--- !u!114 &11400000
MonoBehaviour:
  m_ObjectHideFlags: 0
  m_PrefabParentObject: {fileID: 0}
  m_PrefabInternal: {fileID: 0}
  m_GameObject: {fileID: 0}
  m_Enabled: 1
  m_EditorHideFlags: 0
  m_Script: {fileID: 11500000, guid: ba5c0d42d42d0d04d9e16fcee91e85d1, type: 3}
  m_Name: TileStone
  m_EditorClassIdentifier: 
  m_Id: 2
  m_SourceTexture: {fileID: 2800000, guid: 1844c0b693ca16b489e32056b528e1bd, type: 3}
